tipoR/simulation/qsim/tipoR.msim.vcd
$comment
	File created using the following command:
		vcd file tipoR.msim.vcd -direction
$end
$date
	Tue Oct 19 20:58:06 2021
$end
$version
	ModelSim Version 2020.1
$end
$timescale
	1ps
$end

$scope module tipor_vhd_vec_tst $end
$var wire 1 ! clk $end
$var wire 1 " HAB $end
$var wire 1 # operacao [2] $end
$var wire 1 $ operacao [1] $end
$var wire 1 % operacao [0] $end
$var wire 1 & UCfunct [5] $end
$var wire 1 ' UCfunct [4] $end
$var wire 1 ( UCfunct [3] $end
$var wire 1 ) UCfunct [2] $end
$var wire 1 * UCfunct [1] $end
$var wire 1 + UCfunct [0] $end
$var wire 1 , UCopcode [5] $end
$var wire 1 - UCopcode [4] $end
$var wire 1 . UCopcode [3] $end
$var wire 1 / UCopcode [2] $end
$var wire 1 0 UCopcode [1] $end
$var wire 1 1 UCopcode [0] $end

$scope module i1 $end
$var wire 1 2 gnd $end
$var wire 1 3 vcc $end
$var wire 1 4 unknown $end
$var wire 1 5 devoe $end
$var wire 1 6 devclrn $end
$var wire 1 7 devpor $end
$var wire 1 8 ww_devoe $end
$var wire 1 9 ww_devclrn $end
$var wire 1 : ww_devpor $end
$var wire 1 ; ww_HAB $end
$var wire 1 < ww_operacao [2] $end
$var wire 1 = ww_operacao [1] $end
$var wire 1 > ww_operacao [0] $end
$var wire 1 ? ww_clk $end
$var wire 1 @ ww_UCopcode [5] $end
$var wire 1 A ww_UCopcode [4] $end
$var wire 1 B ww_UCopcode [3] $end
$var wire 1 C ww_UCopcode [2] $end
$var wire 1 D ww_UCopcode [1] $end
$var wire 1 E ww_UCopcode [0] $end
$var wire 1 F ww_UCfunct [5] $end
$var wire 1 G ww_UCfunct [4] $end
$var wire 1 H ww_UCfunct [3] $end
$var wire 1 I ww_UCfunct [2] $end
$var wire 1 J ww_UCfunct [1] $end
$var wire 1 K ww_UCfunct [0] $end
$var wire 1 L \HAB~input_o\ $end
$var wire 1 M \operacao[0]~input_o\ $end
$var wire 1 N \operacao[1]~input_o\ $end
$var wire 1 O \operacao[2]~input_o\ $end
$var wire 1 P \clk~input_o\ $end
$var wire 1 Q \~QUARTUS_CREATED_GND~I_combout\ $end
$upscope $end
$upscope $end
$enddefinitions $end
#0
$dumpvars
0!
1"
02
13
x4
15
16
17
18
19
1:
1;
0?
1L
0M
0N
0O
0P
xQ
0#
0$
0%
0,
0-
0.
0/
00
01
0&
0'
0(
0)
0*
0+
0<
0=
0>
0@
0A
0B
0C
0D
0E
0F
0G
0H
0I
0J
0K
$end
#5000
1!
1?
1P
#10000
0!
0?
0P
#15000
1!
1?
1P
#20000
0!
0?
0P
#25000
1!
1?
1P
#30000
0!
0?
0P
#35000
1!
1?
1P
#40000
0!
0?
0P
#45000
1!
1?
1P
#50000
0!
0?
0P
#55000
1!
1?
1P
#60000
0!
0?
0P
#65000
1!
1?
1P
#70000
0!
0?
0P
#75000
1!
1?
1P
#80000
0!
0?
0P
#85000
1!
1?
1P
#90000
0!
0?
0P
#95000
1!
1?
1P
#100000
0!
0?
0P
#105000
1!
1?
1P
#110000
0!
0?
0P
#115000
1!
1?
1P
#120000
0!
0?
0P
#125000
1!
1?
1P
#130000
0!
0?
0P
#135000
1!
1?
1P
#140000
0!
0?
0P
#145000
1!
1?
1P
#150000
0!
0?
0P
#155000
1!
1?
1P
#160000
0!
0?
0P
#165000
1!
1?
1P
#170000
0!
0?
0P
#175000
1!
1?
1P
#180000
0!
0?
0P
#185000
1!
1?
1P
#190000
0!
0?
0P
#195000
1!
1?
1P
#200000
0!
0?
0P
#205000
1!
1?
1P
#210000
0!
0?
0P
#215000
1!
1?
1P
#220000
0!
0?
0P
#225000
1!
1?
1P
#230000
0!
0?
0P
#235000
1!
1?
1P
#240000
0!
0?
0P
#245000
1!
1?
1P
#250000
0!
0?
0P
#255000
1!
1?
1P
#260000
0!
0?
0P
#265000
1!
1?
1P
#270000
0!
0?
0P
#275000
1!
1?
1P
#280000
0!
0?
0P
#285000
1!
1?
1P
#290000
0!
0?
0P
#295000
1!
1?
1P
