aula2/simulation/qsim/Aula2.msim.vcd
$comment
	File created using the following command:
		vcd file Aula2.msim.vcd -direction
$end
$date
	Tue Aug 24 16:33:26 2021
$end
$version
	ModelSim Version 2020.1
$end
$timescale
	1ps
$end

$scope module aula2_vhd_vec_tst $end
$var wire 1 ! CLOCK_50 $end
$var wire 1 " KEY [3] $end
$var wire 1 # KEY [2] $end
$var wire 1 $ KEY [1] $end
$var wire 1 % KEY [0] $end
$var wire 1 & LEDR [9] $end
$var wire 1 ' LEDR [8] $end
$var wire 1 ( LEDR [7] $end
$var wire 1 ) LEDR [6] $end
$var wire 1 * LEDR [5] $end
$var wire 1 + LEDR [4] $end
$var wire 1 , LEDR [3] $end
$var wire 1 - LEDR [2] $end
$var wire 1 . LEDR [1] $end
$var wire 1 / LEDR [0] $end
$var wire 1 0 SW [9] $end
$var wire 1 1 SW [8] $end
$var wire 1 2 SW [7] $end
$var wire 1 3 SW [6] $end
$var wire 1 4 SW [5] $end
$var wire 1 5 SW [4] $end
$var wire 1 6 SW [3] $end
$var wire 1 7 SW [2] $end
$var wire 1 8 SW [1] $end
$var wire 1 9 SW [0] $end

$scope module i1 $end
$var wire 1 : gnd $end
$var wire 1 ; vcc $end
$var wire 1 < unknown $end
$var wire 1 = devoe $end
$var wire 1 > devclrn $end
$var wire 1 ? devpor $end
$var wire 1 @ ww_devoe $end
$var wire 1 A ww_devclrn $end
$var wire 1 B ww_devpor $end
$var wire 1 C ww_CLOCK_50 $end
$var wire 1 D ww_KEY [3] $end
$var wire 1 E ww_KEY [2] $end
$var wire 1 F ww_KEY [1] $end
$var wire 1 G ww_KEY [0] $end
$var wire 1 H ww_SW [9] $end
$var wire 1 I ww_SW [8] $end
$var wire 1 J ww_SW [7] $end
$var wire 1 K ww_SW [6] $end
$var wire 1 L ww_SW [5] $end
$var wire 1 M ww_SW [4] $end
$var wire 1 N ww_SW [3] $end
$var wire 1 O ww_SW [2] $end
$var wire 1 P ww_SW [1] $end
$var wire 1 Q ww_SW [0] $end
$var wire 1 R ww_LEDR [9] $end
$var wire 1 S ww_LEDR [8] $end
$var wire 1 T ww_LEDR [7] $end
$var wire 1 U ww_LEDR [6] $end
$var wire 1 V ww_LEDR [5] $end
$var wire 1 W ww_LEDR [4] $end
$var wire 1 X ww_LEDR [3] $end
$var wire 1 Y ww_LEDR [2] $end
$var wire 1 Z ww_LEDR [1] $end
$var wire 1 [ ww_LEDR [0] $end
$var wire 1 \ \CLOCK_50~input_o\ $end
$var wire 1 ] \KEY[1]~input_o\ $end
$var wire 1 ^ \KEY[2]~input_o\ $end
$var wire 1 _ \SW[4]~input_o\ $end
$var wire 1 ` \SW[5]~input_o\ $end
$var wire 1 a \~QUARTUS_CREATED_GND~I_combout\ $end
$var wire 1 b \KEY[0]~input_o\ $end
$var wire 1 c \KEY[0]~inputCLKENA0_outclk\ $end
$var wire 1 d \KEY[3]~input_o\ $end
$var wire 1 e \ROM1|memROM~5_combout\ $end
$var wire 1 f \REG_MEF|DOUT[0]~DUPLICATE_q\ $end
$var wire 1 g \ROM1|memROM~4_combout\ $end
$var wire 1 h \REG_MEF|DOUT[1]~DUPLICATE_q\ $end
$var wire 1 i \ROM1|memROM~3_combout\ $end
$var wire 1 j \REG_MEF|DOUT[2]~DUPLICATE_q\ $end
$var wire 1 k \SW[6]~input_o\ $end
$var wire 1 l \ULA1|Add0~18_cout\ $end
$var wire 1 m \ULA1|Add0~1_sumout\ $end
$var wire 1 n \SW[0]~input_o\ $end
$var wire 1 o \ROM1|memROM~0_combout\ $end
$var wire 1 p \ROM1|memROM~2_combout\ $end
$var wire 1 q \ROM1|memROM~1_combout\ $end
$var wire 1 r \SW[7]~input_o\ $end
$var wire 1 s \ULA1|Add0~2\ $end
$var wire 1 t \ULA1|Add0~5_sumout\ $end
$var wire 1 u \SW[1]~input_o\ $end
$var wire 1 v \SW[8]~input_o\ $end
$var wire 1 w \ULA1|Add0~6\ $end
$var wire 1 x \ULA1|Add0~9_sumout\ $end
$var wire 1 y \SW[2]~input_o\ $end
$var wire 1 z \SW[9]~input_o\ $end
$var wire 1 { \ULA1|Add0~10\ $end
$var wire 1 | \ULA1|Add0~13_sumout\ $end
$var wire 1 } \SW[3]~input_o\ $end
$var wire 1 ~ \REG1|DOUT\ [3] $end
$var wire 1 !! \REG1|DOUT\ [2] $end
$var wire 1 "! \REG1|DOUT\ [1] $end
$var wire 1 #! \REG1|DOUT\ [0] $end
$var wire 1 $! \REG_MEF|DOUT\ [3] $end
$var wire 1 %! \REG_MEF|DOUT\ [2] $end
$var wire 1 &! \REG_MEF|DOUT\ [1] $end
$var wire 1 '! \REG_MEF|DOUT\ [0] $end
$var wire 1 (! \REG1|ALT_INV_DOUT\ [3] $end
$var wire 1 )! \REG1|ALT_INV_DOUT\ [2] $end
$var wire 1 *! \REG1|ALT_INV_DOUT\ [1] $end
$var wire 1 +! \REG1|ALT_INV_DOUT\ [0] $end
$var wire 1 ,! \REG_MEF|ALT_INV_DOUT\ [2] $end
$var wire 1 -! \REG_MEF|ALT_INV_DOUT\ [1] $end
$var wire 1 .! \REG_MEF|ALT_INV_DOUT\ [0] $end
$var wire 1 /! \ROM1|ALT_INV_memROM~0_combout\ $end
$var wire 1 0! \ROM1|ALT_INV_memROM~2_combout\ $end
$var wire 1 1! \REG_MEF|ALT_INV_DOUT[0]~DUPLICATE_q\ $end
$var wire 1 2! \REG_MEF|ALT_INV_DOUT[1]~DUPLICATE_q\ $end
$var wire 1 3! \REG_MEF|ALT_INV_DOUT[2]~DUPLICATE_q\ $end
$var wire 1 4! \ALT_INV_SW[9]~input_o\ $end
$var wire 1 5! \ALT_INV_SW[8]~input_o\ $end
$var wire 1 6! \ALT_INV_SW[7]~input_o\ $end
$var wire 1 7! \ALT_INV_SW[6]~input_o\ $end
$upscope $end
$upscope $end
$enddefinitions $end
#0
$dumpvars
0!
0:
1;
x<
1=
1>
1?
1@
1A
1B
0C
0\
0]
0^
0_
0`
xa
0b
0c
0d
1e
0f
0g
0h
0i
0j
1k
0l
1m
0n
1o
1p
0q
1r
0s
1t
0u
0v
0w
0x
0y
0z
0{
0|
0}
0/!
00!
11!
12!
13!
14!
15!
06!
07!
0"
0#
0$
0%
00
01
12
13
04
05
06
07
08
09
0D
0E
0F
0G
0H
0I
1J
1K
0L
0M
0N
0O
0P
0Q
1R
0S
1T
1U
0V
0W
0X
0Y
0Z
0[
0~
0!!
0"!
0#!
x$!
0%!
0&!
0'!
1(!
1)!
1*!
1+!
1,!
1-!
1.!
1&
0'
1(
1)
0*
0+
0,
0-
0.
0/
$end
#10000
1!
1"
1%
1C
1G
1D
1d
1b
1\
1c
1'!
1f
01!
0.!
0e
0o
1q
1g
1/!
1S
0T
0(
1'
#20000
0!
0%
0C
0G
0b
0\
0c
#30000
1!
1%
1C
1G
1b
1\
1c
1&!
0'!
0f
1h
1#!
1"!
0*!
0+!
02!
11!
1.!
0-!
1e
0m
1s
0t
1w
1Z
1[
1x
1t
1/
1.
#40000
0!
0%
0C
0G
0b
0\
0c
#50000
1!
1%
1C
1G
1b
1\
1c
1'!
1f
0#!
1!!
0)!
1+!
01!
0.!
0e
0g
1i
1m
0s
0x
1{
1Y
0[
1|
0t
0/
1-
#60000
0!
0%
0C
0G
0b
0\
0c
#70000
1!
1%
11
02
03
1C
1G
0K
0J
1I
1v
0r
0k
1b
1\
1c
17!
16!
05!
1x
1t
0w
0m
0&!
0'!
1%!
0f
0h
1j
1#!
0"!
0!!
1~
0(!
1)!
1*!
0+!
03!
12!
11!
0,!
1.!
1-!
0x
1e
1l
1s
0{
1X
0Y
0Z
1[
0|
0t
1w
1m
0U
1/
0.
0-
1,
1x
0)
#80000
0!
0%
0C
0G
0b
0\
0c
#90000
1!
1%
01
1C
1G
0I
0v
1b
1\
1c
15!
0x
1{
1'!
1f
1!!
0~
1(!
0)!
01!
0.!
1|
0e
0q
0i
0p
1x
0|
10!
0X
1Y
1-
0,
0R
0S
0'
0&
#100000
0!
0%
0C
0G
0b
0\
0c
#110000
1!
1%
1C
1G
1b
1\
1c
0'!
0%!
0f
0j
13!
11!
1,!
1.!
1e
0l
1t
0w
1|
0m
1o
1p
0x
00!
0/!
1x
0{
1m
0s
1U
0#!
0!!
0t
0|
1)!
1+!
1)
1R
1T
0m
0x
1(
1&
0Y
0[
0/
0-
#120000
0!
0%
0C
0G
0b
0\
0c
#130000
1!
1%
1C
1G
1b
1\
1c
1'!
1f
01!
0.!
0e
0o
1q
1g
1/!
1S
0T
0(
1'
#140000
0!
0%
0C
0G
0b
0\
0c
#150000
1!
1%
1C
1G
1b
1\
1c
1&!
0'!
0f
1h
02!
11!
1.!
0-!
1e
#160000
0!
0%
0C
0G
0b
0\
0c
#170000
1!
1%
1C
1G
1b
1\
1c
1'!
1f
01!
0.!
0e
0g
1i
#180000
0!
0%
0C
0G
0b
0\
0c
#190000
1!
1%
1C
1G
1b
1\
1c
0&!
0'!
1%!
0f
0h
1j
03!
12!
11!
0,!
1.!
1-!
1e
1l
1t
1|
1m
1x
0m
1s
0U
0t
1w
0)
0x
1{
0|
#200000
0!
0%
0C
0G
0b
0\
0c
#210000
1!
1%
1C
1G
1b
1\
1c
1'!
1f
01!
0.!
0e
0q
0i
0p
10!
0R
0S
0'
0&
#220000
0!
0%
0C
0G
0b
0\
0c
#230000
1!
1%
1C
1G
1b
1\
1c
0'!
0%!
0f
0j
13!
11!
1,!
1.!
1e
0l
1t
0w
1|
1m
0s
1o
1p
1x
0{
00!
0/!
0|
0t
0x
0m
1U
1)
1R
1T
1(
1&
#240000
0!
0%
0C
0G
0b
0\
0c
#250000
1!
1%
1C
1G
1b
1\
1c
1'!
1f
01!
0.!
0e
0o
1q
1g
1/!
1S
0T
0(
1'
#260000
0!
0%
0C
0G
0b
0\
0c
#270000
1!
1%
1C
1G
1b
1\
1c
1&!
0'!
0f
1h
02!
11!
1.!
0-!
1e
#280000
0!
0%
0C
0G
0b
0\
0c
#290000
1!
1%
1C
1G
1b
1\
1c
1'!
1f
01!
0.!
0e
0g
1i
#300000
0!
0%
0C
0G
0b
0\
0c
#310000
1!
1%
1C
1G
1b
1\
1c
0&!
0'!
1%!
0f
0h
1j
03!
12!
11!
0,!
1.!
1-!
1e
1l
1t
1|
1m
1x
0m
1s
0U
0t
1w
0)
0x
1{
0|
#320000
0!
0%
0C
0G
0b
0\
0c
#330000
1!
1%
1C
1G
1b
1\
1c
1'!
1f
01!
0.!
0e
0q
0i
0p
10!
0R
0S
0'
0&
#340000
0!
0%
0C
0G
0b
0\
0c
#350000
1!
1%
1C
1G
1b
1\
1c
0'!
0%!
0f
0j
13!
11!
1,!
1.!
1e
0l
1t
0w
1|
1m
0s
1o
1p
1x
0{
00!
0/!
0|
0t
0x
0m
1U
1)
1R
1T
1(
1&
#360000
0!
0%
0C
0G
0b
0\
0c
#370000
1!
1%
1C
1G
1b
1\
1c
1'!
1f
01!
0.!
0e
0o
1q
1g
1/!
1S
0T
0(
1'
#380000
0!
0%
0C
0G
0b
0\
0c
#390000
1!
1%
1C
1G
1b
1\
1c
1&!
0'!
0f
1h
02!
11!
1.!
0-!
1e
#400000
0!
0%
0C
0G
0b
0\
0c
#410000
1!
1%
1C
1G
1b
1\
1c
1'!
1f
01!
0.!
0e
0g
1i
#420000
0!
0%
0C
0G
0b
0\
0c
#430000
1!
1%
1C
1G
1b
1\
1c
0&!
0'!
1%!
0f
0h
1j
03!
12!
11!
0,!
1.!
1-!
1e
1l
1t
1|
1m
1x
0m
1s
0U
0t
1w
0)
0x
1{
0|
#440000
0!
0%
0C
0G
0b
0\
0c
#450000
1!
1%
1C
1G
1b
1\
1c
1'!
1f
01!
0.!
0e
0q
0i
0p
10!
0R
0S
0'
0&
#460000
0!
0%
0C
0G
0b
0\
0c
#470000
1!
1%
1C
1G
1b
1\
1c
0'!
0%!
0f
0j
13!
11!
1,!
1.!
1e
0l
1t
0w
1|
1m
0s
1o
1p
1x
0{
00!
0/!
0|
0t
0x
0m
1U
1)
1R
1T
1(
1&
#480000
0!
0%
0C
0G
0b
0\
0c
#490000
1!
1%
1C
1G
1b
1\
1c
1'!
1f
01!
0.!
0e
0o
1q
1g
1/!
1S
0T
0(
1'
#500000
0!
0%
0C
0G
0b
0\
0c
#510000
1!
1%
1C
1G
1b
1\
1c
1&!
0'!
0f
1h
02!
11!
1.!
0-!
1e
#520000
0!
0%
0C
0G
0b
0\
0c
#530000
1!
1%
1C
1G
1b
1\
1c
1'!
1f
01!
0.!
0e
0g
1i
#540000
0!
0%
0C
0G
0b
0\
0c
#550000
1!
1%
1C
1G
1b
1\
1c
0&!
0'!
1%!
0f
0h
1j
03!
12!
11!
0,!
1.!
1-!
1e
1l
1t
1|
1m
1x
0m
1s
0U
0t
1w
0)
0x
1{
0|
#560000
0!
0%
0C
0G
0b
0\
0c
#570000
1!
1%
1C
1G
1b
1\
1c
1'!
1f
01!
0.!
0e
0q
0i
0p
10!
0R
0S
0'
0&
#580000
0!
0%
0C
0G
0b
0\
0c
#590000
1!
1%
1C
1G
1b
1\
1c
0'!
0%!
0f
0j
13!
11!
1,!
1.!
1e
0l
1t
0w
1|
1m
0s
1o
1p
1x
0{
00!
0/!
0|
0t
0x
0m
1U
1)
1R
1T
1(
1&
#600000
0!
0%
0C
0G
0b
0\
0c
#610000
1!
1%
1C
1G
1b
1\
1c
1'!
1f
01!
0.!
0e
0o
1q
1g
1/!
1S
0T
0(
1'
#620000
0!
0%
0C
0G
0b
0\
0c
#630000
1!
1%
1C
1G
1b
1\
1c
1&!
0'!
0f
1h
02!
11!
1.!
0-!
1e
#640000
0!
0%
0C
0G
0b
0\
0c
#650000
1!
1%
1C
1G
1b
1\
1c
1'!
1f
01!
0.!
0e
0g
1i
#660000
0!
0%
0C
0G
0b
0\
0c
#670000
1!
1%
1C
1G
1b
1\
1c
0&!
0'!
1%!
0f
0h
1j
03!
12!
11!
0,!
1.!
1-!
1e
1l
1t
1|
1m
1x
0m
1s
0U
0t
1w
0)
0x
1{
0|
#680000
0!
0%
0C
0G
0b
0\
0c
#690000
1!
1%
1C
1G
1b
1\
1c
1'!
1f
01!
0.!
0e
0q
0i
0p
10!
0R
0S
0'
0&
#700000
0!
0%
0C
0G
0b
0\
0c
#710000
1!
1%
1C
1G
1b
1\
1c
0'!
0%!
0f
0j
13!
11!
1,!
1.!
1e
0l
1t
0w
1|
1m
0s
1o
1p
1x
0{
00!
0/!
0|
0t
0x
0m
1U
1)
1R
1T
1(
1&
#720000
0!
0%
0C
0G
0b
0\
0c
#730000
1!
1%
1C
1G
1b
1\
1c
1'!
1f
01!
0.!
0e
0o
1q
1g
1/!
1S
0T
0(
1'
#740000
0!
0%
0C
0G
0b
0\
0c
#750000
1!
1%
1C
1G
1b
1\
1c
1&!
0'!
0f
1h
02!
11!
1.!
0-!
1e
#760000
0!
0%
0C
0G
0b
0\
0c
#770000
1!
1%
1C
1G
1b
1\
1c
1'!
1f
01!
0.!
0e
0g
1i
#780000
0!
0%
0C
0G
0b
0\
0c
#790000
1!
1%
1C
1G
1b
1\
1c
0&!
0'!
1%!
0f
0h
1j
03!
12!
11!
0,!
1.!
1-!
1e
1l
1t
1|
1m
1x
0m
1s
0U
0t
1w
0)
0x
1{
0|
#800000
0!
0%
0C
0G
0b
0\
0c
#810000
1!
1%
1C
1G
1b
1\
1c
1'!
1f
01!
0.!
0e
0q
0i
0p
10!
0R
0S
0'
0&
#820000
0!
0%
0C
0G
0b
0\
0c
#830000
1!
1%
1C
1G
1b
1\
1c
0'!
0%!
0f
0j
13!
11!
1,!
1.!
1e
0l
1t
0w
1|
1m
0s
1o
1p
1x
0{
00!
0/!
0|
0t
0x
0m
1U
1)
1R
1T
1(
1&
#840000
0!
0%
0C
0G
0b
0\
0c
#850000
1!
1%
1C
1G
1b
1\
1c
1'!
1f
01!
0.!
0e
0o
1q
1g
1/!
1S
0T
0(
1'
#860000
0!
0%
0C
0G
0b
0\
0c
#870000
1!
1%
1C
1G
1b
1\
1c
1&!
0'!
0f
1h
02!
11!
1.!
0-!
1e
#880000
0!
0%
0C
0G
0b
0\
0c
#890000
1!
1%
1C
1G
1b
1\
1c
1'!
1f
01!
0.!
0e
0g
1i
#900000
0!
0%
0C
0G
0b
0\
0c
#910000
1!
1%
1C
1G
1b
1\
1c
0&!
0'!
1%!
0f
0h
1j
03!
12!
11!
0,!
1.!
1-!
1e
1l
1t
1|
1m
1x
0m
1s
0U
0t
1w
0)
0x
1{
0|
#920000
0!
0%
0C
0G
0b
0\
0c
#930000
1!
1%
1C
1G
1b
1\
1c
1'!
1f
01!
0.!
0e
0q
0i
0p
10!
0R
0S
0'
0&
#940000
0!
0%
0C
0G
0b
0\
0c
#950000
1!
1%
1C
1G
1b
1\
1c
0'!
0%!
0f
0j
13!
11!
1,!
1.!
1e
0l
1t
0w
1|
1m
0s
1o
1p
1x
0{
00!
0/!
0|
0t
0x
0m
1U
1)
1R
1T
1(
1&
#960000
0!
0%
0C
0G
0b
0\
0c
#970000
1!
1%
1C
1G
1b
1\
1c
1'!
1f
01!
0.!
0e
0o
1q
1g
1/!
1S
0T
0(
1'
#980000
0!
0%
0C
0G
0b
0\
0c
#990000
1!
1%
1C
1G
1b
1\
1c
1&!
0'!
0f
1h
02!
11!
1.!
0-!
1e
