aula4/simulation/qsim/Aula3.msim.vcd
$comment
	File created using the following command:
		vcd file Aula3.msim.vcd -direction
$end
$date
	Wed Sep 01 18:31:25 2021
$end
$version
	ModelSim Version 2020.1
$end
$timescale
	1ps
$end

$scope module aula2_vhd_vec_tst $end
$var wire 1 ! CLOCK_50 $end
$var wire 1 " DEBUG [5] $end
$var wire 1 # DEBUG [4] $end
$var wire 1 $ DEBUG [3] $end
$var wire 1 % DEBUG [2] $end
$var wire 1 & DEBUG [1] $end
$var wire 1 ' DEBUG [0] $end
$var wire 1 ( ENTRADA_MUX_0 [7] $end
$var wire 1 ) ENTRADA_MUX_0 [6] $end
$var wire 1 * ENTRADA_MUX_0 [5] $end
$var wire 1 + ENTRADA_MUX_0 [4] $end
$var wire 1 , ENTRADA_MUX_0 [3] $end
$var wire 1 - ENTRADA_MUX_0 [2] $end
$var wire 1 . ENTRADA_MUX_0 [1] $end
$var wire 1 / ENTRADA_MUX_0 [0] $end
$var wire 1 0 ENTRADA_MUX_1 [7] $end
$var wire 1 1 ENTRADA_MUX_1 [6] $end
$var wire 1 2 ENTRADA_MUX_1 [5] $end
$var wire 1 3 ENTRADA_MUX_1 [4] $end
$var wire 1 4 ENTRADA_MUX_1 [3] $end
$var wire 1 5 ENTRADA_MUX_1 [2] $end
$var wire 1 6 ENTRADA_MUX_1 [1] $end
$var wire 1 7 ENTRADA_MUX_1 [0] $end
$var wire 1 8 HABILITA $end
$var wire 1 9 KEY [3] $end
$var wire 1 : KEY [2] $end
$var wire 1 ; KEY [1] $end
$var wire 1 < KEY [0] $end
$var wire 1 = LEDR [9] $end
$var wire 1 > LEDR [8] $end
$var wire 1 ? LEDR [7] $end
$var wire 1 @ LEDR [6] $end
$var wire 1 A LEDR [5] $end
$var wire 1 B LEDR [4] $end
$var wire 1 C LEDR [3] $end
$var wire 1 D LEDR [2] $end
$var wire 1 E LEDR [1] $end
$var wire 1 F LEDR [0] $end
$var wire 1 G OUT_ULA [7] $end
$var wire 1 H OUT_ULA [6] $end
$var wire 1 I OUT_ULA [5] $end
$var wire 1 J OUT_ULA [4] $end
$var wire 1 K OUT_ULA [3] $end
$var wire 1 L OUT_ULA [2] $end
$var wire 1 M OUT_ULA [1] $end
$var wire 1 N OUT_ULA [0] $end
$var wire 1 O SAIDA_MUX [7] $end
$var wire 1 P SAIDA_MUX [6] $end
$var wire 1 Q SAIDA_MUX [5] $end
$var wire 1 R SAIDA_MUX [4] $end
$var wire 1 S SAIDA_MUX [3] $end
$var wire 1 T SAIDA_MUX [2] $end
$var wire 1 U SAIDA_MUX [1] $end
$var wire 1 V SAIDA_MUX [0] $end
$var wire 1 W SELETOR_MUX $end

$scope module i1 $end
$var wire 1 X gnd $end
$var wire 1 Y vcc $end
$var wire 1 Z unknown $end
$var wire 1 [ devoe $end
$var wire 1 \ devclrn $end
$var wire 1 ] devpor $end
$var wire 1 ^ ww_devoe $end
$var wire 1 _ ww_devclrn $end
$var wire 1 ` ww_devpor $end
$var wire 1 a ww_CLOCK_50 $end
$var wire 1 b ww_KEY [3] $end
$var wire 1 c ww_KEY [2] $end
$var wire 1 d ww_KEY [1] $end
$var wire 1 e ww_KEY [0] $end
$var wire 1 f ww_DEBUG [5] $end
$var wire 1 g ww_DEBUG [4] $end
$var wire 1 h ww_DEBUG [3] $end
$var wire 1 i ww_DEBUG [2] $end
$var wire 1 j ww_DEBUG [1] $end
$var wire 1 k ww_DEBUG [0] $end
$var wire 1 l ww_LEDR [9] $end
$var wire 1 m ww_LEDR [8] $end
$var wire 1 n ww_LEDR [7] $end
$var wire 1 o ww_LEDR [6] $end
$var wire 1 p ww_LEDR [5] $end
$var wire 1 q ww_LEDR [4] $end
$var wire 1 r ww_LEDR [3] $end
$var wire 1 s ww_LEDR [2] $end
$var wire 1 t ww_LEDR [1] $end
$var wire 1 u ww_LEDR [0] $end
$var wire 1 v ww_SAIDA_MUX [7] $end
$var wire 1 w ww_SAIDA_MUX [6] $end
$var wire 1 x ww_SAIDA_MUX [5] $end
$var wire 1 y ww_SAIDA_MUX [4] $end
$var wire 1 z ww_SAIDA_MUX [3] $end
$var wire 1 { ww_SAIDA_MUX [2] $end
$var wire 1 | ww_SAIDA_MUX [1] $end
$var wire 1 } ww_SAIDA_MUX [0] $end
$var wire 1 ~ ww_OUT_ULA [7] $end
$var wire 1 !! ww_OUT_ULA [6] $end
$var wire 1 "! ww_OUT_ULA [5] $end
$var wire 1 #! ww_OUT_ULA [4] $end
$var wire 1 $! ww_OUT_ULA [3] $end
$var wire 1 %! ww_OUT_ULA [2] $end
$var wire 1 &! ww_OUT_ULA [1] $end
$var wire 1 '! ww_OUT_ULA [0] $end
$var wire 1 (! ww_ENTRADA_MUX_0 [7] $end
$var wire 1 )! ww_ENTRADA_MUX_0 [6] $end
$var wire 1 *! ww_ENTRADA_MUX_0 [5] $end
$var wire 1 +! ww_ENTRADA_MUX_0 [4] $end
$var wire 1 ,! ww_ENTRADA_MUX_0 [3] $end
$var wire 1 -! ww_ENTRADA_MUX_0 [2] $end
$var wire 1 .! ww_ENTRADA_MUX_0 [1] $end
$var wire 1 /! ww_ENTRADA_MUX_0 [0] $end
$var wire 1 0! ww_ENTRADA_MUX_1 [7] $end
$var wire 1 1! ww_ENTRADA_MUX_1 [6] $end
$var wire 1 2! ww_ENTRADA_MUX_1 [5] $end
$var wire 1 3! ww_ENTRADA_MUX_1 [4] $end
$var wire 1 4! ww_ENTRADA_MUX_1 [3] $end
$var wire 1 5! ww_ENTRADA_MUX_1 [2] $end
$var wire 1 6! ww_ENTRADA_MUX_1 [1] $end
$var wire 1 7! ww_ENTRADA_MUX_1 [0] $end
$var wire 1 8! ww_SELETOR_MUX $end
$var wire 1 9! ww_HABILITA $end
$var wire 1 :! \CLOCK_50~input_o\ $end
$var wire 1 ;! \KEY[1]~input_o\ $end
$var wire 1 <! \KEY[2]~input_o\ $end
$var wire 1 =! \KEY[3]~input_o\ $end
$var wire 1 >! \ENTRADA_MUX_0[0]~output_o\ $end
$var wire 1 ?! \ENTRADA_MUX_0[1]~output_o\ $end
$var wire 1 @! \ENTRADA_MUX_0[2]~output_o\ $end
$var wire 1 A! \ENTRADA_MUX_0[3]~output_o\ $end
$var wire 1 B! \ENTRADA_MUX_0[4]~output_o\ $end
$var wire 1 C! \ENTRADA_MUX_0[5]~output_o\ $end
$var wire 1 D! \ENTRADA_MUX_0[6]~output_o\ $end
$var wire 1 E! \ENTRADA_MUX_0[7]~output_o\ $end
$var wire 1 F! \DEBUG[0]~output_o\ $end
$var wire 1 G! \DEBUG[1]~output_o\ $end
$var wire 1 H! \DEBUG[2]~output_o\ $end
$var wire 1 I! \DEBUG[3]~output_o\ $end
$var wire 1 J! \DEBUG[4]~output_o\ $end
$var wire 1 K! \DEBUG[5]~output_o\ $end
$var wire 1 L! \LEDR[0]~output_o\ $end
$var wire 1 M! \LEDR[1]~output_o\ $end
$var wire 1 N! \LEDR[2]~output_o\ $end
$var wire 1 O! \LEDR[3]~output_o\ $end
$var wire 1 P! \LEDR[4]~output_o\ $end
$var wire 1 Q! \LEDR[5]~output_o\ $end
$var wire 1 R! \LEDR[6]~output_o\ $end
$var wire 1 S! \LEDR[7]~output_o\ $end
$var wire 1 T! \LEDR[8]~output_o\ $end
$var wire 1 U! \LEDR[9]~output_o\ $end
$var wire 1 V! \SAIDA_MUX[0]~output_o\ $end
$var wire 1 W! \SAIDA_MUX[1]~output_o\ $end
$var wire 1 X! \SAIDA_MUX[2]~output_o\ $end
$var wire 1 Y! \SAIDA_MUX[3]~output_o\ $end
$var wire 1 Z! \SAIDA_MUX[4]~output_o\ $end
$var wire 1 [! \SAIDA_MUX[5]~output_o\ $end
$var wire 1 \! \SAIDA_MUX[6]~output_o\ $end
$var wire 1 ]! \SAIDA_MUX[7]~output_o\ $end
$var wire 1 ^! \OUT_ULA[0]~output_o\ $end
$var wire 1 _! \OUT_ULA[1]~output_o\ $end
$var wire 1 `! \OUT_ULA[2]~output_o\ $end
$var wire 1 a! \OUT_ULA[3]~output_o\ $end
$var wire 1 b! \OUT_ULA[4]~output_o\ $end
$var wire 1 c! \OUT_ULA[5]~output_o\ $end
$var wire 1 d! \OUT_ULA[6]~output_o\ $end
$var wire 1 e! \OUT_ULA[7]~output_o\ $end
$var wire 1 f! \ENTRADA_MUX_1[0]~output_o\ $end
$var wire 1 g! \ENTRADA_MUX_1[1]~output_o\ $end
$var wire 1 h! \ENTRADA_MUX_1[2]~output_o\ $end
$var wire 1 i! \ENTRADA_MUX_1[3]~output_o\ $end
$var wire 1 j! \ENTRADA_MUX_1[4]~output_o\ $end
$var wire 1 k! \ENTRADA_MUX_1[5]~output_o\ $end
$var wire 1 l! \ENTRADA_MUX_1[6]~output_o\ $end
$var wire 1 m! \ENTRADA_MUX_1[7]~output_o\ $end
$var wire 1 n! \SELETOR_MUX~output_o\ $end
$var wire 1 o! \HABILITA~output_o\ $end
$var wire 1 p! \KEY[0]~input_o\ $end
$var wire 1 q! \PC1|ULA1|Add0~1_sumout\ $end
$var wire 1 r! \PC1|ULA1|Add0~2\ $end
$var wire 1 s! \PC1|ULA1|Add0~5_sumout\ $end
$var wire 1 t! \PC1|ULA1|Add0~6\ $end
$var wire 1 u! \PC1|ULA1|Add0~9_sumout\ $end
$var wire 1 v! \PC1|ULA1|Add0~10\ $end
$var wire 1 w! \PC1|ULA1|Add0~13_sumout\ $end
$var wire 1 x! \ROM1|memROM~4_combout\ $end
$var wire 1 y! \ROM1|memROM~0_combout\ $end
$var wire 1 z! \ROM1|memROM~1_combout\ $end
$var wire 1 {! \ROM1|memROM~2_combout\ $end
$var wire 1 |! \DECODER1|Equal3~1_combout\ $end
$var wire 1 }! \MUX1|saida_MUX[0]~7_combout\ $end
$var wire 1 ~! \DECODER1|Sinais_Controle[3]~2_combout\ $end
$var wire 1 !" \ULA1|Add0~34_cout\ $end
$var wire 1 "" \ULA1|Add0~1_sumout\ $end
$var wire 1 #" \DECODER1|Sinais_Controle[3]~1_combout\ $end
$var wire 1 $" \DECODER1|Sinais_Controle[1]~0_combout\ $end
$var wire 1 %" \DECODER1|Equal3~2_combout\ $end
$var wire 1 &" \DECODER1|Equal3~0_combout\ $end
$var wire 1 '" \ROM1|memROM~3_combout\ $end
$var wire 1 (" \REGDADOS1|ram~156_combout\ $end
$var wire 1 )" \REGDADOS1|ram~17_q\ $end
$var wire 1 *" \REGDADOS1|ram~157_combout\ $end
$var wire 1 +" \REGDADOS1|ram~25_q\ $end
$var wire 1 ," \ROM1|memROM~5_combout\ $end
$var wire 1 -" \REGDADOS1|ram~145_combout\ $end
$var wire 1 ." \REGDADOS1|ram~158_combout\ $end
$var wire 1 /" \REGDADOS1|dado_out~0_combout\ $end
$var wire 1 0" \MUX1|saida_MUX[1]~0_combout\ $end
$var wire 1 1" \ULA1|Add0~2\ $end
$var wire 1 2" \ULA1|Add0~5_sumout\ $end
$var wire 1 3" \REGDADOS1|ram~18_q\ $end
$var wire 1 4" \REGDADOS1|ram~26_q\ $end
$var wire 1 5" \REGDADOS1|ram~146_combout\ $end
$var wire 1 6" \REGDADOS1|ram~159_combout\ $end
$var wire 1 7" \MUX1|saida_MUX[2]~6_combout\ $end
$var wire 1 8" \ULA1|Add0~6\ $end
$var wire 1 9" \ULA1|Add0~9_sumout\ $end
$var wire 1 :" \REGDADOS1|ram~19_q\ $end
$var wire 1 ;" \REGDADOS1|ram~27_q\ $end
$var wire 1 <" \REGDADOS1|ram~147_combout\ $end
$var wire 1 =" \REGDADOS1|ram~160_combout\ $end
$var wire 1 >" \MUX1|saida_MUX[3]~1_combout\ $end
$var wire 1 ?" \ULA1|Add0~10\ $end
$var wire 1 @" \ULA1|Add0~13_sumout\ $end
$var wire 1 A" \REGDADOS1|ram~20_q\ $end
$var wire 1 B" \REGDADOS1|ram~28_q\ $end
$var wire 1 C" \REGDADOS1|ram~148_combout\ $end
$var wire 1 D" \REGDADOS1|ram~161_combout\ $end
$var wire 1 E" \MUX1|saida_MUX[4]~2_combout\ $end
$var wire 1 F" \ULA1|Add0~14\ $end
$var wire 1 G" \ULA1|Add0~17_sumout\ $end
$var wire 1 H" \REGDADOS1|ram~21_q\ $end
$var wire 1 I" \REGDADOS1|ram~29_q\ $end
$var wire 1 J" \REGDADOS1|ram~149_combout\ $end
$var wire 1 K" \REGDADOS1|ram~162_combout\ $end
$var wire 1 L" \REGDADOS1|dado_out[5]~9_combout\ $end
$var wire 1 M" \ULA1|Add0~18\ $end
$var wire 1 N" \ULA1|Add0~21_sumout\ $end
$var wire 1 O" \MUX1|saida_MUX[5]~3_combout\ $end
$var wire 1 P" \REGDADOS1|ram~30_q\ $end
$var wire 1 Q" \REGDADOS1|ram~22_q\ $end
$var wire 1 R" \REGDADOS1|ram~150_combout\ $end
$var wire 1 S" \REGDADOS1|ram~151_combout\ $end
$var wire 1 T" \REGDADOS1|dado_out[6]~10_combout\ $end
$var wire 1 U" \ULA1|Add0~22\ $end
$var wire 1 V" \ULA1|Add0~25_sumout\ $end
$var wire 1 W" \MUX1|saida_MUX[6]~4_combout\ $end
$var wire 1 X" \REGDADOS1|ram~23_q\ $end
$var wire 1 Y" \REGDADOS1|ram~31_q\ $end
$var wire 1 Z" \REGDADOS1|ram~152_combout\ $end
$var wire 1 [" \REGDADOS1|ram~163_combout\ $end
$var wire 1 \" \REGDADOS1|dado_out[7]~11_combout\ $end
$var wire 1 ]" \ULA1|Add0~26\ $end
$var wire 1 ^" \ULA1|Add0~29_sumout\ $end
$var wire 1 _" \MUX1|saida_MUX[7]~5_combout\ $end
$var wire 1 `" \REGDADOS1|ram~32_q\ $end
$var wire 1 a" \REGDADOS1|ram~153_combout\ $end
$var wire 1 b" \REGDADOS1|ram~24_q\ $end
$var wire 1 c" \REGDADOS1|ram~154_combout\ $end
$var wire 1 d" \REGDADOS1|ram~155_combout\ $end
$var wire 1 e" \ULA1|saida[0]~0_combout\ $end
$var wire 1 f" \ULA1|saida[1]~1_combout\ $end
$var wire 1 g" \ULA1|saida[2]~2_combout\ $end
$var wire 1 h" \ULA1|saida[3]~3_combout\ $end
$var wire 1 i" \ULA1|saida[4]~4_combout\ $end
$var wire 1 j" \ULA1|saida[5]~5_combout\ $end
$var wire 1 k" \ULA1|saida[6]~6_combout\ $end
$var wire 1 l" \ULA1|saida[7]~7_combout\ $end
$var wire 1 m" \REG1|DOUT\ [7] $end
$var wire 1 n" \REG1|DOUT\ [6] $end
$var wire 1 o" \REG1|DOUT\ [5] $end
$var wire 1 p" \REG1|DOUT\ [4] $end
$var wire 1 q" \REG1|DOUT\ [3] $end
$var wire 1 r" \REG1|DOUT\ [2] $end
$var wire 1 s" \REG1|DOUT\ [1] $end
$var wire 1 t" \REG1|DOUT\ [0] $end
$var wire 1 u" \PC1|dataOUT\ [8] $end
$var wire 1 v" \PC1|dataOUT\ [7] $end
$var wire 1 w" \PC1|dataOUT\ [6] $end
$var wire 1 x" \PC1|dataOUT\ [5] $end
$var wire 1 y" \PC1|dataOUT\ [4] $end
$var wire 1 z" \PC1|dataOUT\ [3] $end
$var wire 1 {" \PC1|dataOUT\ [2] $end
$var wire 1 |" \PC1|dataOUT\ [1] $end
$var wire 1 }" \PC1|dataOUT\ [0] $end
$var wire 1 ~" \DECODER1|Sinais_Controle\ [5] $end
$var wire 1 !# \DECODER1|Sinais_Controle\ [4] $end
$var wire 1 "# \DECODER1|Sinais_Controle\ [3] $end
$var wire 1 ## \DECODER1|Sinais_Controle\ [2] $end
$var wire 1 $# \DECODER1|Sinais_Controle\ [1] $end
$var wire 1 %# \DECODER1|Sinais_Controle\ [0] $end
$var wire 1 &# \DECODER1|ALT_INV_Sinais_Controle[1]~0_combout\ $end
$var wire 1 '# \DECODER1|ALT_INV_Equal3~0_combout\ $end
$var wire 1 (# \ROM1|ALT_INV_memROM~2_combout\ $end
$var wire 1 )# \ROM1|ALT_INV_memROM~1_combout\ $end
$var wire 1 *# \ROM1|ALT_INV_memROM~0_combout\ $end
$var wire 1 +# \PC1|ALT_INV_dataOUT\ [3] $end
$var wire 1 ,# \PC1|ALT_INV_dataOUT\ [2] $end
$var wire 1 -# \PC1|ALT_INV_dataOUT\ [1] $end
$var wire 1 .# \PC1|ALT_INV_dataOUT\ [0] $end
$var wire 1 /# \ULA1|ALT_INV_Add0~29_sumout\ $end
$var wire 1 0# \ULA1|ALT_INV_Add0~25_sumout\ $end
$var wire 1 1# \ULA1|ALT_INV_Add0~21_sumout\ $end
$var wire 1 2# \ULA1|ALT_INV_Add0~17_sumout\ $end
$var wire 1 3# \ULA1|ALT_INV_Add0~13_sumout\ $end
$var wire 1 4# \ULA1|ALT_INV_Add0~9_sumout\ $end
$var wire 1 5# \ULA1|ALT_INV_Add0~5_sumout\ $end
$var wire 1 6# \ULA1|ALT_INV_Add0~1_sumout\ $end
$var wire 1 7# \REG1|ALT_INV_DOUT\ [7] $end
$var wire 1 8# \REG1|ALT_INV_DOUT\ [6] $end
$var wire 1 9# \REG1|ALT_INV_DOUT\ [5] $end
$var wire 1 :# \REG1|ALT_INV_DOUT\ [4] $end
$var wire 1 ;# \REG1|ALT_INV_DOUT\ [3] $end
$var wire 1 <# \REG1|ALT_INV_DOUT\ [2] $end
$var wire 1 =# \REG1|ALT_INV_DOUT\ [1] $end
$var wire 1 ># \REG1|ALT_INV_DOUT\ [0] $end
$var wire 1 ?# \MUX1|ALT_INV_saida_MUX[0]~7_combout\ $end
$var wire 1 @# \MUX1|ALT_INV_saida_MUX[2]~6_combout\ $end
$var wire 1 A# \REGDADOS1|ALT_INV_dado_out[7]~11_combout\ $end
$var wire 1 B# \REGDADOS1|ALT_INV_dado_out[6]~10_combout\ $end
$var wire 1 C# \REGDADOS1|ALT_INV_dado_out[5]~9_combout\ $end
$var wire 1 D# \DECODER1|ALT_INV_Sinais_Controle[3]~2_combout\ $end
$var wire 1 E# \MUX1|ALT_INV_saida_MUX[7]~5_combout\ $end
$var wire 1 F# \REGDADOS1|ALT_INV_ram~155_combout\ $end
$var wire 1 G# \REGDADOS1|ALT_INV_ram~154_combout\ $end
$var wire 1 H# \REGDADOS1|ALT_INV_ram~24_q\ $end
$var wire 1 I# \REGDADOS1|ALT_INV_ram~153_combout\ $end
$var wire 1 J# \REGDADOS1|ALT_INV_ram~32_q\ $end
$var wire 1 K# \MUX1|ALT_INV_saida_MUX[6]~4_combout\ $end
$var wire 1 L# \REGDADOS1|ALT_INV_ram~152_combout\ $end
$var wire 1 M# \REGDADOS1|ALT_INV_ram~31_q\ $end
$var wire 1 N# \REGDADOS1|ALT_INV_ram~23_q\ $end
$var wire 1 O# \MUX1|ALT_INV_saida_MUX[5]~3_combout\ $end
$var wire 1 P# \REGDADOS1|ALT_INV_ram~151_combout\ $end
$var wire 1 Q# \REGDADOS1|ALT_INV_ram~150_combout\ $end
$var wire 1 R# \REGDADOS1|ALT_INV_ram~22_q\ $end
$var wire 1 S# \REGDADOS1|ALT_INV_ram~30_q\ $end
$var wire 1 T# \MUX1|ALT_INV_saida_MUX[4]~2_combout\ $end
$var wire 1 U# \REGDADOS1|ALT_INV_ram~149_combout\ $end
$var wire 1 V# \REGDADOS1|ALT_INV_ram~29_q\ $end
$var wire 1 W# \REGDADOS1|ALT_INV_ram~21_q\ $end
$var wire 1 X# \MUX1|ALT_INV_saida_MUX[3]~1_combout\ $end
$var wire 1 Y# \REGDADOS1|ALT_INV_ram~148_combout\ $end
$var wire 1 Z# \REGDADOS1|ALT_INV_ram~28_q\ $end
$var wire 1 [# \REGDADOS1|ALT_INV_ram~20_q\ $end
$var wire 1 \# \REGDADOS1|ALT_INV_ram~147_combout\ $end
$var wire 1 ]# \REGDADOS1|ALT_INV_ram~27_q\ $end
$var wire 1 ^# \REGDADOS1|ALT_INV_ram~19_q\ $end
$var wire 1 _# \MUX1|ALT_INV_saida_MUX[1]~0_combout\ $end
$var wire 1 `# \REGDADOS1|ALT_INV_ram~146_combout\ $end
$var wire 1 a# \REGDADOS1|ALT_INV_ram~26_q\ $end
$var wire 1 b# \REGDADOS1|ALT_INV_ram~18_q\ $end
$var wire 1 c# \REGDADOS1|ALT_INV_ram~145_combout\ $end
$var wire 1 d# \REGDADOS1|ALT_INV_ram~25_q\ $end
$var wire 1 e# \REGDADOS1|ALT_INV_ram~17_q\ $end
$var wire 1 f# \ROM1|ALT_INV_memROM~5_combout\ $end
$var wire 1 g# \ROM1|ALT_INV_memROM~4_combout\ $end
$var wire 1 h# \REGDADOS1|ALT_INV_dado_out~0_combout\ $end
$var wire 1 i# \ROM1|ALT_INV_memROM~3_combout\ $end
$var wire 1 j# \DECODER1|ALT_INV_Equal3~2_combout\ $end
$var wire 1 k# \DECODER1|ALT_INV_Sinais_Controle[3]~1_combout\ $end
$var wire 1 l# \DECODER1|ALT_INV_Equal3~1_combout\ $end
$upscope $end
$upscope $end
$enddefinitions $end
#0
$dumpvars
x!
18
0W
0X
1Y
xZ
1[
1\
1]
1^
1_
1`
xa
08!
19!
x:!
x;!
x<!
x=!
z>!
z?!
z@!
zA!
zB!
zC!
zD!
zE!
0F!
0G!
0H!
0I!
0J!
0K!
0L!
0M!
0N!
0O!
0P!
0Q!
0R!
0S!
0T!
0U!
1V!
1W!
1X!
1Y!
1Z!
1[!
1\!
1]!
1^!
0_!
0`!
0a!
0b!
0c!
0d!
0e!
0f!
0g!
0h!
0i!
0j!
0k!
0l!
0m!
0n!
1o!
0p!
1q!
0r!
0s!
0t!
0u!
0v!
0w!
0x!
0y!
0z!
0{!
0|!
1}!
0~!
1!"
1""
0#"
1$"
0%"
0&"
0'"
0("
0)"
0*"
0+"
0,"
0-"
0."
0/"
10"
01"
02"
03"
04"
05"
06"
17"
08"
09"
0:"
0;"
0<"
0="
1>"
0?"
0@"
0A"
0B"
0C"
0D"
1E"
0F"
0G"
0H"
0I"
0J"
0K"
1L"
0M"
0N"
1O"
0P"
0Q"
0R"
0S"
1T"
0U"
0V"
1W"
0X"
0Y"
0Z"
0["
1\"
0]"
0^"
1_"
0`"
0a"
0b"
0c"
0d"
1e"
0f"
0g"
0h"
0i"
0j"
0k"
0l"
0&#
1'#
1(#
1)#
1*#
1/#
10#
11#
12#
13#
14#
15#
06#
0?#
0@#
0A#
0B#
0C#
1D#
0E#
1F#
1G#
1H#
1I#
1J#
0K#
1L#
1M#
1N#
0O#
1P#
1Q#
1R#
1S#
0T#
1U#
1V#
1W#
0X#
1Y#
1Z#
1[#
1\#
1]#
1^#
0_#
1`#
1a#
1b#
1c#
1d#
1e#
1f#
1g#
1h#
1i#
1j#
1k#
1l#
x9
x:
x;
0<
xb
xc
xd
0e
0f
0g
0h
0i
0j
0k
0l
0m
0n
0o
0p
0q
0r
0s
0t
0u
1v
1w
1x
1y
1z
1{
1|
1}
0~
0!!
0"!
0#!
0$!
0%!
0&!
1'!
z(!
z)!
z*!
z+!
z,!
z-!
z.!
z/!
00!
01!
02!
03!
04!
05!
06!
07!
0m"
0n"
0o"
0p"
0q"
0r"
0s"
0t"
xu"
xv"
xw"
xx"
xy"
0z"
0{"
0|"
0}"
x~"
0!#
x"#
x##
x$#
x%#
1+#
1,#
1-#
1.#
17#
18#
19#
1:#
1;#
1<#
1=#
1>#
0"
0#
0$
0%
0&
0'
z(
z)
z*
z+
z,
z-
z.
z/
00
01
02
03
04
05
06
07
0=
0>
0?
0@
0A
0B
0C
0D
0E
0F
0G
0H
0I
0J
0K
0L
0M
1N
1O
1P
1Q
1R
1S
1T
1U
1V
$end
#10000
1<
1e
1p!
1}"
0.#
0q!
1r!
1{!
0}!
1%"
1,"
0f#
0j#
1?#
0(#
1s!
1~!
1#"
0""
11"
1!#
00"
0>"
0E"
1N"
0O"
1V"
0W"
1^"
0_"
1E#
0/#
1K#
00#
1O#
01#
1T#
1X#
1_#
16#
0k#
0D#
1h!
1K!
1n!
0V!
12"
1g"
0e"
02"
18"
1@"
1G"
05#
15!
1f
18!
0}
02#
03#
15#
15
1"
1W
0V
0]!
0\!
0[!
0Z!
0Y!
0W!
1J!
1I!
19"
04#
0v
0w
0x
0y
0z
0|
1g
1h
0U
0S
0R
0Q
0P
0O
1$
1#
0^!
1`!
0'!
1%!
0N
1L
#20000
0<
0e
0p!
#30000
1<
1e
1p!
0}"
1|"
1r"
0<#
0-#
1.#
1q!
0r!
0%"
0s!
1t!
1y!
1}!
1'"
0,"
09"
1?"
14#
1f#
0i#
0?#
0*#
1j#
1N!
0@"
1F"
1u!
1s!
0t!
0!#
10"
1>"
1E"
0N"
1O"
0V"
1W"
0^"
1_"
0~!
0#"
1&"
1""
01"
1e"
13#
1s
0u!
0G"
1M"
06#
0'#
1k#
1D#
0E#
1/#
0K#
10#
0O#
11#
0T#
0X#
0_#
1D
0h!
1f!
1V!
0K!
0n!
12"
08"
12#
02"
1@"
0F"
1G"
0M"
0g"
1i"
1*"
1N"
05#
05!
17!
1}
0f
08!
0i"
19"
0?"
01#
02#
03#
15#
17
05
1V
0"
0W
1^!
1F!
0I!
1]!
1\!
1[!
1Z!
1Y!
1W!
0J!
1f"
0N"
0G"
04#
0f"
1h"
1i"
1j"
0@"
12#
11#
1'!
1k
0h
1v
1w
1x
1y
1z
1|
0g
1g"
13#
1N
1'
0$
0#
1U
1S
1R
1Q
1P
1O
1b!
0`!
0j"
0i"
0b!
0h"
1#!
0%!
1_!
0#!
0L
1J
1c!
1b!
1a!
0_!
1&!
0J
1`!
1"!
1#!
1$!
0&!
1M
0b!
0c!
1%!
0M
1K
1J
1I
0a!
0#!
0"!
1L
0$!
0J
0I
0K
#40000
0<
0e
0p!
#50000
1<
1e
1p!
1}"
1;"
0]#
0.#
0q!
1r!
1x!
0y!
0}!
1%"
0'"
07"
1<"
0\#
1@#
1i#
0j#
1?#
1*#
0g#
0s!
1t!
1~!
1#"
0&"
0""
11"
1!#
0E"
1N"
0O"
1V"
0W"
1^"
0_"
0*"
0<"
09"
1?"
1u!
14#
1\#
1E#
0/#
1K#
00#
1O#
01#
1T#
16#
1'#
0k#
0D#
0X!
0f!
1K!
1n!
0V!
1g!
1i!
1@"
12"
1f"
1h"
0e"
1G"
0g"
05#
03#
0{
07!
1f
18!
0}
16!
14!
02#
0V
0T
07
16
14
1"
1W
0]!
0\!
0[!
0Z!
1J!
0F!
1I!
0v
0w
0x
0y
1g
0k
1h
0R
0Q
0P
0O
0'
1$
1#
0`!
0^!
1a!
1_!
0%!
0'!
1$!
1&!
0N
1M
0L
1K
#60000
0<
0e
0p!
#70000
1<
1e
1p!
0}"
0|"
1{"
1s"
0r"
1q"
0;#
1<#
0=#
0,#
1-#
1.#
1q!
0r!
1s!
0t!
0u!
1v!
0x!
1y!
1}!
0%"
17"
02"
18"
19"
0?"
0@"
1F"
13#
04#
15#
0@#
1j#
0?#
0*#
1g#
1O!
0N!
1M!
0G"
1M"
1@"
0F"
09"
1?"
1w!
1u!
0v!
0s!
0~!
0#"
1&"
1""
01"
1e"
0!#
1E"
0N"
1O"
0V"
1W"
0^"
1_"
19"
0?"
1g"
14#
03#
12#
1r
0s
1t
0w!
0@"
1F"
1G"
0M"
1N"
04#
0E#
1/#
0K#
10#
0O#
11#
0T#
06#
0'#
1k#
1D#
1E
0D
1C
1X!
0K!
0n!
1V!
0g!
0i!
1@"
0F"
12"
08"
01#
02#
13#
0f"
1("
0N"
05#
03#
1{
0f
08!
1}
06!
04!
0h"
1i"
1j"
09"
0G"
11#
1V
1T
0"
0W
06
04
1`!
1]!
1\!
1[!
1Z!
0J!
1^!
1F!
0I!
1h"
1f"
12#
14#
0j"
1%!
1v
1w
1x
1y
0g
1'!
1k
0h
0g"
0i"
1N
1L
1R
1Q
1P
1O
1'
0$
0#
0_!
1c!
1b!
0a!
0&!
1_!
1a!
1"!
1#!
0$!
0M
0c!
1&!
1$!
0K
1J
1I
0b!
0`!
0"!
1M
1K
0#!
0%!
0I
0L
0J
#80000
0<
0e
0p!
#90000
1<
1e
1p!
1}"
13"
1A"
0[#
0b#
0.#
0q!
1r!
0y!
1z!
0{!
0}!
1/"
07"
15"
1C"
0Y#
0`#
1@#
0h#
1?#
1(#
0)#
1*#
1s!
1|!
0$"
0&"
0""
11"
0E"
0L"
0O"
0T"
0W"
0\"
0_"
19"
16"
1D"
04#
1E#
1A#
1K#
1B#
1O#
1C#
1T#
16#
1'#
1&#
0l#
0X!
0>!
0?!
0@!
0A!
0B!
0C!
0D!
0E!
0V!
02"
18"
0!"
1""
01"
12"
09"
0@"
1F"
1!#
0("
0e"
1g"
15#
0{
0/!
0.!
0-!
0,!
0+!
0*!
0)!
0(!
0}
19"
13#
14#
05#
06#
0V
0T
0/
0.
0-
0,
0+
0*
0)
0(
1A!
1?!
0]!
0\!
0[!
0Z!
0F!
1H!
0f"
1G"
02"
0""
04#
1G!
1e"
1f"
0g"
0h"
16#
15#
02#
1,!
1.!
0v
0w
0x
0y
0k
1i
1g"
1j
1.
1,
0R
0Q
0P
0O
0'
1%
1`!
0^!
1J!
1i"
0f"
0e"
1&
1%!
0'!
1g
0_!
0N
1L
1#
0a!
0`!
1_!
1^!
0&!
1`!
0$!
0%!
1&!
1'!
0M
0^!
0_!
1b!
1%!
1N
1M
0L
0K
0'!
0&!
1#!
1L
0N
0M
1J
#100000
0<
0e
0p!
