aula5/simulation/qsim/Aula3.msim.vcd
$comment
	File created using the following command:
		vcd file Aula3.msim.vcd -direction
$end
$date
	Wed Sep 08 14:14:39 2021
$end
$version
	ModelSim Version 2020.1
$end
$timescale
	1ps
$end

$scope module aula2_vhd_vec_tst $end
$var wire 1 ! CLOCK_50 $end
$var wire 1 " DEBUG_PC [8] $end
$var wire 1 # DEBUG_PC [7] $end
$var wire 1 $ DEBUG_PC [6] $end
$var wire 1 % DEBUG_PC [5] $end
$var wire 1 & DEBUG_PC [4] $end
$var wire 1 ' DEBUG_PC [3] $end
$var wire 1 ( DEBUG_PC [2] $end
$var wire 1 ) DEBUG_PC [1] $end
$var wire 1 * DEBUG_PC [0] $end
$var wire 1 + INSTRUCAO [12] $end
$var wire 1 , INSTRUCAO [11] $end
$var wire 1 - INSTRUCAO [10] $end
$var wire 1 . INSTRUCAO [9] $end
$var wire 1 / INSTRUCAO [8] $end
$var wire 1 0 INSTRUCAO [7] $end
$var wire 1 1 INSTRUCAO [6] $end
$var wire 1 2 INSTRUCAO [5] $end
$var wire 1 3 INSTRUCAO [4] $end
$var wire 1 4 INSTRUCAO [3] $end
$var wire 1 5 INSTRUCAO [2] $end
$var wire 1 6 INSTRUCAO [1] $end
$var wire 1 7 INSTRUCAO [0] $end
$var wire 1 8 KEY [3] $end
$var wire 1 9 KEY [2] $end
$var wire 1 : KEY [1] $end
$var wire 1 ; KEY [0] $end
$var wire 1 < LEDR [9] $end
$var wire 1 = LEDR [8] $end
$var wire 1 > LEDR [7] $end
$var wire 1 ? LEDR [6] $end
$var wire 1 @ LEDR [5] $end
$var wire 1 A LEDR [4] $end
$var wire 1 B LEDR [3] $end
$var wire 1 C LEDR [2] $end
$var wire 1 D LEDR [1] $end
$var wire 1 E LEDR [0] $end
$var wire 1 F MUXJMP [1] $end
$var wire 1 G MUXJMP [0] $end
$var wire 1 H OUT_ULA [7] $end
$var wire 1 I OUT_ULA [6] $end
$var wire 1 J OUT_ULA [5] $end
$var wire 1 K OUT_ULA [4] $end
$var wire 1 L OUT_ULA [3] $end
$var wire 1 M OUT_ULA [2] $end
$var wire 1 N OUT_ULA [1] $end
$var wire 1 O OUT_ULA [0] $end
$var wire 1 P SAIDA_FLAG0 $end
$var wire 1 Q SAIDA_FLAGULA $end

$scope module i1 $end
$var wire 1 R gnd $end
$var wire 1 S vcc $end
$var wire 1 T unknown $end
$var wire 1 U devoe $end
$var wire 1 V devclrn $end
$var wire 1 W devpor $end
$var wire 1 X ww_devoe $end
$var wire 1 Y ww_devclrn $end
$var wire 1 Z ww_devpor $end
$var wire 1 [ ww_CLOCK_50 $end
$var wire 1 \ ww_KEY [3] $end
$var wire 1 ] ww_KEY [2] $end
$var wire 1 ^ ww_KEY [1] $end
$var wire 1 _ ww_KEY [0] $end
$var wire 1 ` ww_LEDR [9] $end
$var wire 1 a ww_LEDR [8] $end
$var wire 1 b ww_LEDR [7] $end
$var wire 1 c ww_LEDR [6] $end
$var wire 1 d ww_LEDR [5] $end
$var wire 1 e ww_LEDR [4] $end
$var wire 1 f ww_LEDR [3] $end
$var wire 1 g ww_LEDR [2] $end
$var wire 1 h ww_LEDR [1] $end
$var wire 1 i ww_LEDR [0] $end
$var wire 1 j ww_OUT_ULA [7] $end
$var wire 1 k ww_OUT_ULA [6] $end
$var wire 1 l ww_OUT_ULA [5] $end
$var wire 1 m ww_OUT_ULA [4] $end
$var wire 1 n ww_OUT_ULA [3] $end
$var wire 1 o ww_OUT_ULA [2] $end
$var wire 1 p ww_OUT_ULA [1] $end
$var wire 1 q ww_OUT_ULA [0] $end
$var wire 1 r ww_DEBUG_PC [8] $end
$var wire 1 s ww_DEBUG_PC [7] $end
$var wire 1 t ww_DEBUG_PC [6] $end
$var wire 1 u ww_DEBUG_PC [5] $end
$var wire 1 v ww_DEBUG_PC [4] $end
$var wire 1 w ww_DEBUG_PC [3] $end
$var wire 1 x ww_DEBUG_PC [2] $end
$var wire 1 y ww_DEBUG_PC [1] $end
$var wire 1 z ww_DEBUG_PC [0] $end
$var wire 1 { ww_INSTRUCAO [12] $end
$var wire 1 | ww_INSTRUCAO [11] $end
$var wire 1 } ww_INSTRUCAO [10] $end
$var wire 1 ~ ww_INSTRUCAO [9] $end
$var wire 1 !! ww_INSTRUCAO [8] $end
$var wire 1 "! ww_INSTRUCAO [7] $end
$var wire 1 #! ww_INSTRUCAO [6] $end
$var wire 1 $! ww_INSTRUCAO [5] $end
$var wire 1 %! ww_INSTRUCAO [4] $end
$var wire 1 &! ww_INSTRUCAO [3] $end
$var wire 1 '! ww_INSTRUCAO [2] $end
$var wire 1 (! ww_INSTRUCAO [1] $end
$var wire 1 )! ww_INSTRUCAO [0] $end
$var wire 1 *! ww_SAIDA_FLAG0 $end
$var wire 1 +! ww_SAIDA_FLAGULA $end
$var wire 1 ,! ww_MUXJMP [1] $end
$var wire 1 -! ww_MUXJMP [0] $end
$var wire 1 .! \CLOCK_50~input_o\ $end
$var wire 1 /! \KEY[1]~input_o\ $end
$var wire 1 0! \KEY[2]~input_o\ $end
$var wire 1 1! \KEY[3]~input_o\ $end
$var wire 1 2! \LEDR[0]~output_o\ $end
$var wire 1 3! \LEDR[1]~output_o\ $end
$var wire 1 4! \LEDR[2]~output_o\ $end
$var wire 1 5! \LEDR[3]~output_o\ $end
$var wire 1 6! \LEDR[4]~output_o\ $end
$var wire 1 7! \LEDR[5]~output_o\ $end
$var wire 1 8! \LEDR[6]~output_o\ $end
$var wire 1 9! \LEDR[7]~output_o\ $end
$var wire 1 :! \LEDR[8]~output_o\ $end
$var wire 1 ;! \LEDR[9]~output_o\ $end
$var wire 1 <! \OUT_ULA[0]~output_o\ $end
$var wire 1 =! \OUT_ULA[1]~output_o\ $end
$var wire 1 >! \OUT_ULA[2]~output_o\ $end
$var wire 1 ?! \OUT_ULA[3]~output_o\ $end
$var wire 1 @! \OUT_ULA[4]~output_o\ $end
$var wire 1 A! \OUT_ULA[5]~output_o\ $end
$var wire 1 B! \OUT_ULA[6]~output_o\ $end
$var wire 1 C! \OUT_ULA[7]~output_o\ $end
$var wire 1 D! \DEBUG_PC[0]~output_o\ $end
$var wire 1 E! \DEBUG_PC[1]~output_o\ $end
$var wire 1 F! \DEBUG_PC[2]~output_o\ $end
$var wire 1 G! \DEBUG_PC[3]~output_o\ $end
$var wire 1 H! \DEBUG_PC[4]~output_o\ $end
$var wire 1 I! \DEBUG_PC[5]~output_o\ $end
$var wire 1 J! \DEBUG_PC[6]~output_o\ $end
$var wire 1 K! \DEBUG_PC[7]~output_o\ $end
$var wire 1 L! \DEBUG_PC[8]~output_o\ $end
$var wire 1 M! \INSTRUCAO[0]~output_o\ $end
$var wire 1 N! \INSTRUCAO[1]~output_o\ $end
$var wire 1 O! \INSTRUCAO[2]~output_o\ $end
$var wire 1 P! \INSTRUCAO[3]~output_o\ $end
$var wire 1 Q! \INSTRUCAO[4]~output_o\ $end
$var wire 1 R! \INSTRUCAO[5]~output_o\ $end
$var wire 1 S! \INSTRUCAO[6]~output_o\ $end
$var wire 1 T! \INSTRUCAO[7]~output_o\ $end
$var wire 1 U! \INSTRUCAO[8]~output_o\ $end
$var wire 1 V! \INSTRUCAO[9]~output_o\ $end
$var wire 1 W! \INSTRUCAO[10]~output_o\ $end
$var wire 1 X! \INSTRUCAO[11]~output_o\ $end
$var wire 1 Y! \INSTRUCAO[12]~output_o\ $end
$var wire 1 Z! \SAIDA_FLAG0~output_o\ $end
$var wire 1 [! \SAIDA_FLAGULA~output_o\ $end
$var wire 1 \! \MUXJMP[0]~output_o\ $end
$var wire 1 ]! \MUXJMP[1]~output_o\ $end
$var wire 1 ^! \KEY[0]~input_o\ $end
$var wire 1 _! \ROM1|memROM~2_combout\ $end
$var wire 1 `! \REGDADOS1|process_0~0_combout\ $end
$var wire 1 a! \REGDADOS1|ram~161_combout\ $end
$var wire 1 b! \REGDADOS1|ram~17_q\ $end
$var wire 1 c! \REGDADOS1|ram~145_combout\ $end
$var wire 1 d! \REGDADOS1|ram~146_combout\ $end
$var wire 1 e! \ULA1|Add0~34_cout\ $end
$var wire 1 f! \ULA1|Add0~1_sumout\ $end
$var wire 1 g! \ULA1|saida[1]~2_combout\ $end
$var wire 1 h! \DECODER1|Sinais_Controle[4]~1_combout\ $end
$var wire 1 i! \REGDADOS1|ram~18_q\ $end
$var wire 1 j! \REGDADOS1|ram~147_combout\ $end
$var wire 1 k! \REGDADOS1|ram~148_combout\ $end
$var wire 1 l! \ULA1|Add0~2\ $end
$var wire 1 m! \ULA1|Add0~5_sumout\ $end
$var wire 1 n! \ULA1|saida[2]~3_combout\ $end
$var wire 1 o! \REGDADOS1|ram~19_q\ $end
$var wire 1 p! \REGDADOS1|ram~149_combout\ $end
$var wire 1 q! \REGDADOS1|ram~150_combout\ $end
$var wire 1 r! \ULA1|Add0~6\ $end
$var wire 1 s! \ULA1|Add0~9_sumout\ $end
$var wire 1 t! \ULA1|Equal3~1_combout\ $end
$var wire 1 u! \ULA1|saida[3]~4_combout\ $end
$var wire 1 v! \REGDADOS1|ram~20_q\ $end
$var wire 1 w! \REGDADOS1|ram~151_combout\ $end
$var wire 1 x! \REGDADOS1|ram~152_combout\ $end
$var wire 1 y! \ULA1|Add0~10\ $end
$var wire 1 z! \ULA1|Add0~13_sumout\ $end
$var wire 1 {! \ULA1|saida[4]~5_combout\ $end
$var wire 1 |! \REGDADOS1|ram~21_q\ $end
$var wire 1 }! \REGDADOS1|ram~153_combout\ $end
$var wire 1 ~! \REGDADOS1|ram~154_combout\ $end
$var wire 1 !" \ULA1|Add0~14\ $end
$var wire 1 "" \ULA1|Add0~17_sumout\ $end
$var wire 1 #" \ULA1|saida[5]~6_combout\ $end
$var wire 1 $" \REGDADOS1|ram~22_q\ $end
$var wire 1 %" \REGDADOS1|ram~155_combout\ $end
$var wire 1 &" \REGDADOS1|ram~156_combout\ $end
$var wire 1 '" \ULA1|Add0~18\ $end
$var wire 1 (" \ULA1|Add0~21_sumout\ $end
$var wire 1 )" \ULA1|saida[6]~7_combout\ $end
$var wire 1 *" \REGDADOS1|ram~23_q\ $end
$var wire 1 +" \REGDADOS1|ram~157_combout\ $end
$var wire 1 ," \REGDADOS1|ram~158_combout\ $end
$var wire 1 -" \ULA1|Add0~22\ $end
$var wire 1 ." \ULA1|Add0~25_sumout\ $end
$var wire 1 /" \ULA1|Equal3~3_combout\ $end
$var wire 1 0" \ULA1|saida[7]~8_combout\ $end
$var wire 1 1" \REGDADOS1|ram~24_q\ $end
$var wire 1 2" \REGDADOS1|ram~159_combout\ $end
$var wire 1 3" \REGDADOS1|ram~160_combout\ $end
$var wire 1 4" \ULA1|Add0~26\ $end
$var wire 1 5" \ULA1|Add0~29_sumout\ $end
$var wire 1 6" \DECODER1|Equal7~0_combout\ $end
$var wire 1 7" \REGIGUAL|DOUT~0_combout\ $end
$var wire 1 8" \REGIGUAL|DOUT~q\ $end
$var wire 1 9" \DESVIO|Sel[0]~1_combout\ $end
$var wire 1 :" \DESVIO|Sel[1]~0_combout\ $end
$var wire 1 ;" \DECODER1|Equal7~1_combout\ $end
$var wire 1 <" \DECODER1|Sinais_Controle[10]~0_combout\ $end
$var wire 1 =" \PC1|dataOUT[3]~0_combout\ $end
$var wire 1 >" \SOMPC|Add0~2\ $end
$var wire 1 ?" \SOMPC|Add0~6\ $end
$var wire 1 @" \SOMPC|Add0~10\ $end
$var wire 1 A" \SOMPC|Add0~13_sumout\ $end
$var wire 1 B" \MUXPC|saida_MUX[3]~3_combout\ $end
$var wire 1 C" \ROM1|memROM~3_combout\ $end
$var wire 1 D" \SOMPC|Add0~9_sumout\ $end
$var wire 1 E" \MUXPC|saida_MUX[2]~2_combout\ $end
$var wire 1 F" \ROM1|memROM~1_combout\ $end
$var wire 1 G" \SOMPC|Add0~5_sumout\ $end
$var wire 1 H" \MUXPC|saida_MUX[1]~1_combout\ $end
$var wire 1 I" \ROM1|memROM~0_combout\ $end
$var wire 1 J" \SOMPC|Add0~1_sumout\ $end
$var wire 1 K" \MUXPC|saida_MUX[0]~0_combout\ $end
$var wire 1 L" \ULA1|saida[3]~0_combout\ $end
$var wire 1 M" \ULA1|saida[0]~1_combout\ $end
$var wire 1 N" \SOMPC|Add0~14\ $end
$var wire 1 O" \SOMPC|Add0~17_sumout\ $end
$var wire 1 P" \MUXPC|saida_MUX[4]~4_combout\ $end
$var wire 1 Q" \SOMPC|Add0~18\ $end
$var wire 1 R" \SOMPC|Add0~21_sumout\ $end
$var wire 1 S" \MUXPC|saida_MUX[5]~5_combout\ $end
$var wire 1 T" \SOMPC|Add0~22\ $end
$var wire 1 U" \SOMPC|Add0~25_sumout\ $end
$var wire 1 V" \MUXPC|saida_MUX[6]~6_combout\ $end
$var wire 1 W" \SOMPC|Add0~26\ $end
$var wire 1 X" \SOMPC|Add0~29_sumout\ $end
$var wire 1 Y" \MUXPC|saida_MUX[7]~7_combout\ $end
$var wire 1 Z" \ROM1|memROM~4_combout\ $end
$var wire 1 [" \SOMPC|Add0~30\ $end
$var wire 1 \" \SOMPC|Add0~33_sumout\ $end
$var wire 1 ]" \MUXPC|saida_MUX[8]~8_combout\ $end
$var wire 1 ^" \ROM1|memROM~5_combout\ $end
$var wire 1 _" \ROM1|memROM~6_combout\ $end
$var wire 1 `" \ROM1|memROM~7_combout\ $end
$var wire 1 a" \ROM1|memROM~8_combout\ $end
$var wire 1 b" \ULA1|Equal3~0_combout\ $end
$var wire 1 c" \ULA1|Equal3~2_combout\ $end
$var wire 1 d" \REG1|DOUT\ [7] $end
$var wire 1 e" \REG1|DOUT\ [6] $end
$var wire 1 f" \REG1|DOUT\ [5] $end
$var wire 1 g" \REG1|DOUT\ [4] $end
$var wire 1 h" \REG1|DOUT\ [3] $end
$var wire 1 i" \REG1|DOUT\ [2] $end
$var wire 1 j" \REG1|DOUT\ [1] $end
$var wire 1 k" \REG1|DOUT\ [0] $end
$var wire 1 l" \PC1|dataOUT\ [8] $end
$var wire 1 m" \PC1|dataOUT\ [7] $end
$var wire 1 n" \PC1|dataOUT\ [6] $end
$var wire 1 o" \PC1|dataOUT\ [5] $end
$var wire 1 p" \PC1|dataOUT\ [4] $end
$var wire 1 q" \PC1|dataOUT\ [3] $end
$var wire 1 r" \PC1|dataOUT\ [2] $end
$var wire 1 s" \PC1|dataOUT\ [1] $end
$var wire 1 t" \PC1|dataOUT\ [0] $end
$var wire 1 u" \REGRET|DOUT\ [8] $end
$var wire 1 v" \REGRET|DOUT\ [7] $end
$var wire 1 w" \REGRET|DOUT\ [6] $end
$var wire 1 x" \REGRET|DOUT\ [5] $end
$var wire 1 y" \REGRET|DOUT\ [4] $end
$var wire 1 z" \REGRET|DOUT\ [3] $end
$var wire 1 {" \REGRET|DOUT\ [2] $end
$var wire 1 |" \REGRET|DOUT\ [1] $end
$var wire 1 }" \REGRET|DOUT\ [0] $end
$var wire 1 ~" \DESVIO|ALT_INV_Sel[0]~1_combout\ $end
$var wire 1 !# \DESVIO|ALT_INV_Sel[1]~0_combout\ $end
$var wire 1 "# \DECODER1|ALT_INV_Sinais_Controle[10]~0_combout\ $end
$var wire 1 ## \ULA1|ALT_INV_Equal3~3_combout\ $end
$var wire 1 $# \REGRET|ALT_INV_DOUT\ [8] $end
$var wire 1 %# \REGRET|ALT_INV_DOUT\ [7] $end
$var wire 1 &# \REGRET|ALT_INV_DOUT\ [6] $end
$var wire 1 '# \REGRET|ALT_INV_DOUT\ [5] $end
$var wire 1 (# \REGRET|ALT_INV_DOUT\ [4] $end
$var wire 1 )# \REGDADOS1|ALT_INV_ram~160_combout\ $end
$var wire 1 *# \REGDADOS1|ALT_INV_ram~159_combout\ $end
$var wire 1 +# \REGDADOS1|ALT_INV_ram~24_q\ $end
$var wire 1 ,# \REGDADOS1|ALT_INV_ram~158_combout\ $end
$var wire 1 -# \REGDADOS1|ALT_INV_ram~157_combout\ $end
$var wire 1 .# \REGDADOS1|ALT_INV_ram~23_q\ $end
$var wire 1 /# \REGDADOS1|ALT_INV_ram~156_combout\ $end
$var wire 1 0# \REGDADOS1|ALT_INV_ram~155_combout\ $end
$var wire 1 1# \REGDADOS1|ALT_INV_ram~22_q\ $end
$var wire 1 2# \REGDADOS1|ALT_INV_ram~154_combout\ $end
$var wire 1 3# \REGDADOS1|ALT_INV_ram~153_combout\ $end
$var wire 1 4# \REGDADOS1|ALT_INV_ram~21_q\ $end
$var wire 1 5# \REGDADOS1|ALT_INV_ram~152_combout\ $end
$var wire 1 6# \REGDADOS1|ALT_INV_ram~151_combout\ $end
$var wire 1 7# \REGDADOS1|ALT_INV_ram~20_q\ $end
$var wire 1 8# \REGDADOS1|ALT_INV_ram~150_combout\ $end
$var wire 1 9# \REGDADOS1|ALT_INV_ram~149_combout\ $end
$var wire 1 :# \REGDADOS1|ALT_INV_ram~19_q\ $end
$var wire 1 ;# \REGDADOS1|ALT_INV_ram~148_combout\ $end
$var wire 1 <# \REGDADOS1|ALT_INV_ram~147_combout\ $end
$var wire 1 =# \REGDADOS1|ALT_INV_ram~18_q\ $end
$var wire 1 ># \REGDADOS1|ALT_INV_ram~146_combout\ $end
$var wire 1 ?# \REGDADOS1|ALT_INV_ram~145_combout\ $end
$var wire 1 @# \REGDADOS1|ALT_INV_ram~17_q\ $end
$var wire 1 A# \PC1|ALT_INV_dataOUT[3]~0_combout\ $end
$var wire 1 B# \DECODER1|ALT_INV_Equal7~1_combout\ $end
$var wire 1 C# \ULA1|ALT_INV_Equal3~1_combout\ $end
$var wire 1 D# \ULA1|ALT_INV_Equal3~0_combout\ $end
$var wire 1 E# \REGIGUAL|ALT_INV_DOUT~q\ $end
$var wire 1 F# \ROM1|ALT_INV_memROM~4_combout\ $end
$var wire 1 G# \ROM1|ALT_INV_memROM~3_combout\ $end
$var wire 1 H# \PC1|ALT_INV_dataOUT\ [8] $end
$var wire 1 I# \PC1|ALT_INV_dataOUT\ [7] $end
$var wire 1 J# \PC1|ALT_INV_dataOUT\ [6] $end
$var wire 1 K# \PC1|ALT_INV_dataOUT\ [5] $end
$var wire 1 L# \PC1|ALT_INV_dataOUT\ [4] $end
$var wire 1 M# \PC1|ALT_INV_dataOUT\ [3] $end
$var wire 1 N# \PC1|ALT_INV_dataOUT\ [2] $end
$var wire 1 O# \PC1|ALT_INV_dataOUT\ [1] $end
$var wire 1 P# \PC1|ALT_INV_dataOUT\ [0] $end
$var wire 1 Q# \ROM1|ALT_INV_memROM~2_combout\ $end
$var wire 1 R# \ROM1|ALT_INV_memROM~1_combout\ $end
$var wire 1 S# \ROM1|ALT_INV_memROM~0_combout\ $end
$var wire 1 T# \ULA1|ALT_INV_saida[3]~0_combout\ $end
$var wire 1 U# \REGDADOS1|ALT_INV_process_0~0_combout\ $end
$var wire 1 V# \DECODER1|ALT_INV_Equal7~0_combout\ $end
$var wire 1 W# \REG1|ALT_INV_DOUT\ [7] $end
$var wire 1 X# \REG1|ALT_INV_DOUT\ [6] $end
$var wire 1 Y# \REG1|ALT_INV_DOUT\ [5] $end
$var wire 1 Z# \REG1|ALT_INV_DOUT\ [4] $end
$var wire 1 [# \REG1|ALT_INV_DOUT\ [3] $end
$var wire 1 \# \REG1|ALT_INV_DOUT\ [2] $end
$var wire 1 ]# \REG1|ALT_INV_DOUT\ [1] $end
$var wire 1 ^# \REG1|ALT_INV_DOUT\ [0] $end
$var wire 1 _# \SOMPC|ALT_INV_Add0~33_sumout\ $end
$var wire 1 `# \SOMPC|ALT_INV_Add0~29_sumout\ $end
$var wire 1 a# \SOMPC|ALT_INV_Add0~25_sumout\ $end
$var wire 1 b# \SOMPC|ALT_INV_Add0~21_sumout\ $end
$var wire 1 c# \SOMPC|ALT_INV_Add0~17_sumout\ $end
$var wire 1 d# \SOMPC|ALT_INV_Add0~13_sumout\ $end
$var wire 1 e# \SOMPC|ALT_INV_Add0~9_sumout\ $end
$var wire 1 f# \SOMPC|ALT_INV_Add0~5_sumout\ $end
$var wire 1 g# \SOMPC|ALT_INV_Add0~1_sumout\ $end
$var wire 1 h# \ULA1|ALT_INV_Add0~29_sumout\ $end
$var wire 1 i# \ULA1|ALT_INV_Add0~25_sumout\ $end
$var wire 1 j# \ULA1|ALT_INV_Add0~21_sumout\ $end
$var wire 1 k# \ULA1|ALT_INV_Add0~17_sumout\ $end
$var wire 1 l# \ULA1|ALT_INV_Add0~13_sumout\ $end
$var wire 1 m# \ULA1|ALT_INV_Add0~9_sumout\ $end
$var wire 1 n# \ULA1|ALT_INV_Add0~5_sumout\ $end
$var wire 1 o# \ULA1|ALT_INV_Add0~1_sumout\ $end
$upscope $end
$upscope $end
$enddefinitions $end
#0
$dumpvars
x!
0P
1Q
0R
1S
xT
1U
1V
1W
1X
1Y
1Z
x[
0*!
1+!
x.!
x/!
x0!
x1!
02!
03!
04!
05!
06!
07!
08!
09!
0:!
0;!
0<!
0=!
0>!
0?!
0@!
0A!
0B!
0C!
0D!
0E!
0F!
0G!
0H!
0I!
0J!
0K!
0L!
0M!
0N!
0O!
0P!
0Q!
0R!
0S!
0T!
1U!
0V!
0W!
0X!
0Y!
0Z!
1[!
0\!
0]!
0^!
0_!
1`!
0a!
0b!
0c!
0d!
1e!
0f!
0g!
0h!
0i!
0j!
0k!
1l!
0m!
0n!
0o!
0p!
0q!
1r!
0s!
1t!
0u!
0v!
0w!
0x!
1y!
0z!
0{!
0|!
0}!
0~!
1!"
0""
0#"
0$"
0%"
0&"
1'"
0("
0)"
0*"
0+"
0,"
1-"
0."
1/"
00"
01"
02"
03"
14"
05"
06"
07"
08"
09"
0:"
0;"
0<"
0="
0>"
0?"
0@"
0A"
0B"
0C"
0D"
0E"
0F"
0G"
0H"
0I"
1J"
1K"
0L"
0M"
0N"
0O"
0P"
0Q"
0R"
0S"
0T"
0U"
0V"
0W"
0X"
0Y"
0Z"
0["
0\"
0]"
0^"
0_"
0`"
0a"
1b"
1c"
1~"
1!#
1"#
0##
1)#
1*#
1+#
1,#
1-#
1.#
1/#
10#
11#
12#
13#
14#
15#
16#
17#
18#
19#
1:#
1;#
1<#
1=#
1>#
1?#
1@#
1A#
1B#
0C#
0D#
1E#
1F#
1G#
1Q#
1R#
1S#
1T#
0U#
1V#
1_#
1`#
1a#
1b#
1c#
1d#
1e#
1f#
0g#
1h#
1i#
1j#
1k#
1l#
1m#
1n#
1o#
x8
x9
x:
0;
x\
x]
x^
0_
0`
0a
0b
0c
0d
0e
0f
0g
0h
0i
0j
0k
0l
0m
0n
0o
0p
0q
0r
0s
0t
0u
0v
0w
0x
0y
0z
0{
0|
0}
0~
1!!
0"!
0#!
0$!
0%!
0&!
0'!
0(!
0)!
0,!
0-!
0d"
0e"
0f"
0g"
0h"
0i"
0j"
0k"
0l"
0m"
0n"
0o"
0p"
0q"
0r"
0s"
0t"
0u"
0v"
0w"
0x"
0y"
xz"
x{"
x|"
x}"
1$#
1%#
1&#
1'#
1(#
1H#
1I#
1J#
1K#
1L#
1M#
1N#
1O#
1P#
1W#
1X#
1Y#
1Z#
1[#
1\#
1]#
1^#
0"
0#
0$
0%
0&
0'
0(
0)
0*
0+
0,
0-
0.
1/
00
01
02
03
04
05
06
07
0<
0=
0>
0?
0@
0A
0B
0C
0D
0E
0F
0G
0H
0I
0J
0K
0L
0M
0N
0O
$end
#5000
1;
1_
1^!
1t"
0P#
1h!
0J"
1>"
1I"
1L"
1`"
0T#
0S#
1g#
1D!
1G"
1f!
0l!
0K"
0t!
1M"
0f#
1z
1C#
0o#
1*
1X!
1M!
1H"
1m!
0r!
0c"
0n#
1|
1)!
1s!
0y!
17
1,
1<!
0m#
1z!
0!"
1q
0l#
1O
0[!
1""
0'"
0k#
0+!
1("
0-"
0Q
0j#
1."
04"
0i#
15"
0h#
#10000
0;
0_
0^!
#15000
1;
1_
1^!
1s"
0t"
1k"
0^#
1P#
0O#
0G"
1?"
1a!
0h!
1J"
0>"
0I"
0L"
1^"
1l!
1T#
1S#
0g#
1f#
12!
0D!
1E!
0m!
1r!
1G"
0?"
1D"
0H"
1K"
1g!
1n!
1u!
1{!
1#"
1)"
0/"
10"
0b"
0e#
0f#
1n#
1i
0z
1y
0D"
0s!
1y!
1D#
1##
1E
0*
1)
1V!
0M!
0g!
1H"
1E"
1m#
1e#
0z!
1!"
1~
0)!
0E"
0n!
1l#
07
1.
1C!
1B!
1A!
1@!
1?!
1>!
1=!
0""
1'"
0u!
1k#
1j
1k
1l
1m
1n
1o
1p
0=!
0("
1-"
1N
1M
1L
1K
1J
1I
1H
0{!
1b"
1j#
0p
0>!
0."
14"
0D#
0N
0#"
1i#
0o
0?!
05"
0M
0)"
1/"
1h#
0n
0@!
0##
0L
00"
0m
0A!
0K
0l
0B!
0J
0k
0C!
0I
0j
0H
#20000
0;
0_
0^!
#25000
1;
1_
1^!
1b!
1t"
0P#
0@#
1c!
0a!
1h!
0J"
1>"
1F"
1I"
1L"
0^"
0T#
0S#
0R#
1g#
0?#
1D!
0G"
1?"
1d!
1m!
0r!
0c!
0f!
0K"
1g!
1f#
1z
1D"
1o#
1?#
0n#
0>#
1*
0V!
1M!
1N!
0H"
1s!
0y!
0e#
0d!
0m#
0~
1)!
1(!
1E"
1z!
0!"
1>#
17
16
0.
1=!
0l#
1""
0'"
1p
0k#
1N
1("
0-"
0j#
1."
04"
0i#
15"
0h#
#30000
0;
0_
0^!
#35000
1;
1_
1^!
1j"
1r"
0s"
0t"
1P#
1O#
0N#
0]#
0`!
0D"
1@"
1G"
0?"
1f!
0h!
1r!
16"
1J"
0>"
0F"
0I"
0L"
0`"
1a"
1T#
1S#
1R#
0g#
0V#
0o#
0f#
1e#
1U#
0D!
0E!
1F!
13!
0G"
0s!
1y!
1D"
0@"
1A"
0E"
1H"
1c!
1K"
1n!
1u!
1{!
1#"
1)"
0/"
10"
0b"
0d#
0e#
1m#
1f#
0z
0y
1x
1h
0A"
0z!
1!"
1D#
1##
0?#
0*
0)
1(
1D
1Y!
0X!
0M!
0N!
0H"
0n!
1E"
1B"
1l#
1d#
1d!
0""
1'"
1{
0|
0)!
0(!
0B"
0u!
1k#
0>#
07
06
0,
1+
1C!
1B!
1A!
1@!
1?!
1>!
0("
1-"
0f!
0{!
1b"
1j#
1j
1k
1l
1m
1n
1o
0>!
0."
14"
0D#
1o#
1M
1L
1K
1J
1I
1H
0#"
1i#
0o
0?!
0M"
05"
0M
0)"
1/"
1h#
0n
0@!
0##
0L
00"
0m
0A!
0K
0<!
0l
0B!
0q
0J
0k
0O
0C!
0I
0j
0H
#40000
0;
0_
0^!
#45000
1;
1_
1^!
1t"
0P#
06"
1;"
1<"
0J"
1>"
1I"
1Z"
1^"
1_"
1`"
0a"
0F#
0S#
1g#
0"#
0B#
1V#
1D!
1G"
0c!
0K"
0f#
1z
1?#
1*
0Y!
1X!
1W!
1V!
1M!
1H"
0U!
0d!
0{
1|
1}
1~
1)!
1>#
0!!
17
1.
1-
1,
0+
0/
1f!
0o#
1M"
1<!
1q
1O
#50000
0;
0_
0^!
#55000
1;
1_
1^!
1s"
0t"
1P#
0O#
0G"
1?"
1_!
19"
0;"
1J"
0>"
1C"
0I"
0_"
0`"
1a"
1S#
0G#
0g#
1B#
0~"
0Q#
1f#
0D!
1E!
1G"
0?"
0D"
1@"
0H"
1="
1c!
1K"
1e#
0f#
0z
1y
1A"
1D"
0@"
0?#
0A#
0*
1)
1Y!
0X!
0W!
0M!
1O!
1\!
1P!
1H"
0E"
0e#
0d#
1B"
1E"
0H"
0K"
0A"
1{
0|
0}
0)!
1'!
1-!
1&!
1d#
07
15
14
0-
0,
1+
1G
#60000
0;
0_
0^!
#65000
1;
1_
1^!
1q"
0s"
1O#
0M#
1A"
0_!
09"
0<"
0G"
0C"
0Z"
0^"
0a"
1F#
1G#
1f#
1"#
1~"
1Q#
0d#
0E!
1G!
0B"
1K"
1H"
1d!
0="
0y
1w
1A#
0>#
0)
1'
0Y!
0V!
0O!
0\!
0P!
1U!
0f!
1B"
0H"
0{
0~
0'!
0-!
0&!
1o#
1!!
05
04
0.
0+
0G
1/
0M"
0<!
0q
0O
#70000
0;
0_
0^!
#75000
1;
1_
1^!
1t"
0P#
1h!
0J"
1>"
1^"
1_"
1g#
1D!
1G"
0K"
0f#
1z
1*
1W!
1V!
1H"
1}
1~
1.
1-
#80000
0;
0_
0^!
#85000
1;
1_
1^!
1s"
0t"
0k"
1^#
1P#
0O#
0G"
1?"
1J"
0>"
1f!
0l!
0o#
0g#
1f#
02!
0D!
1E!
0m!
1G"
0?"
0D"
1@"
0H"
1K"
1M"
1e#
0f#
1n#
0i
0z
1y
0A"
1N"
1D"
0@"
0E
0*
1)
0g!
1H"
0E"
0e#
1d#
1A"
0N"
1O"
0B"
1E"
0c#
0d#
1<!
0O"
1B"
1P"
1c#
1q
0=!
1O
0P"
0p
0N
#90000
0;
0_
0^!
